

 NAS Parallel Benchmarks 3.4 -- FT Benchmark

 No input file inputft.data. Using compiled defaults
 Size                :  512x 512x 512  (class C)
 Iterations          :             20
 Number of processes :              8
 Processor array     :         1x   8
 Layout type         :             1D

 Initialization time =      2.8321

[PI-INFO] Init time,3,5.922843
[PI-INFO] Init time,0,5.929933
[PI-INFO] Init time,6,5.924491
[PI-INFO] Init time,4,5.931187
[PI-INFO] Init time,1,5.939923
[PI-INFO] Init time,5,5.936292
[PI-INFO] Init time,2,5.942032
[PI-INFO] Init time,7,5.937433
